<?xml version="1.0" encoding="utf-8"?>
<!-- Generator: Adobe Illustrator 16.0.0, SVG Export Plug-In . SVG Version: 6.00 Build 0)  -->
<!DOCTYPE svg PUBLIC "-//W3C//DTD SVG 1.1//EN" "http://www.w3.org/Graphics/SVG/1.1/DTD/svg11.dtd">
<svg version="1.1" id="Layer_1" xmlns="http://www.w3.org/2000/svg" xmlns:xlink="http://www.w3.org/1999/xlink" x="0px" y="0px"
	 width="80px" height="80px" viewBox="0 0 80 80" enable-background="new 0 0 80 80" xml:space="preserve">
<g>
	<path fill="#D5E2CC" d="M13.568,33.879h17.085c0.727,0,1.314-0.589,1.314-1.314c0-0.726-0.587-1.314-1.314-1.314H13.568
		c-0.727,0-1.314,0.588-1.314,1.314C12.253,33.29,12.841,33.879,13.568,33.879z"/>
	<path fill="#D5E2CC" d="M47.738,39.136h-34.17c-0.727,0-1.314,0.589-1.314,1.314s0.588,1.314,1.314,1.314h34.17
		c0.727,0,1.314-0.589,1.314-1.314S48.465,39.136,47.738,39.136z"/>
	<path fill="#D5E2CC" d="M47.738,47.021h-34.17c-0.727,0-1.314,0.589-1.314,1.314c0,0.725,0.588,1.313,1.314,1.313h34.17
		c0.727,0,1.314-0.589,1.314-1.313C49.053,47.61,48.465,47.021,47.738,47.021z"/>
	<path fill="#D5E2CC" d="M71.489,3.743L26.619,3.651c-4.298,0-7.793,3.496-7.793,7.793v6.734L8.219,18.201
		c-4.297,0-7.793,3.496-7.793,7.793v27.785c0,4.297,3.497,7.793,7.793,7.793h7.978v13.143c0,0.542,0.334,1.029,0.841,1.225
		c0.154,0.061,0.314,0.089,0.473,0.089c0.363,0,0.719-0.151,0.973-0.431l12.753-14.028l21.85-0.09c4.298,0,7.794-3.496,7.794-7.792
		v-0.148l6.914,7.604c0.253,0.277,0.609,0.43,0.972,0.43c0.158,0,0.319-0.03,0.473-0.088c0.508-0.197,0.841-0.684,0.841-1.228
		V47.115h1.406c4.299,0,7.794-3.495,7.794-7.792V11.537C79.28,7.24,75.786,3.745,71.489,3.743z M58.252,53.686
		c0,2.848-2.316,5.164-5.17,5.164l-22.434,0.093c-0.368,0.001-0.72,0.156-0.967,0.43L18.825,71.313V60.255
		c0-0.725-0.587-1.312-1.314-1.312H8.219c-2.848,0-5.165-2.318-5.165-5.164V25.994c0-2.849,2.317-5.165,5.167-5.165l11.917-0.025
		l0,0c0.002,0,0.002,0,0.003,0l32.945-0.068c2.849,0,5.165,2.316,5.165,5.164v24.237V53.686z M76.651,39.321
		c0,2.848-2.316,5.163-5.165,5.163h-2.72c-0.727,0-1.313,0.589-1.313,1.314v11.059l-6.572-7.229V25.901
		c0-4.297-3.496-7.793-7.797-7.793l-31.631,0.064v-6.729c0-2.848,2.317-5.165,5.163-5.165L71.484,6.37c0.002,0,0.002,0,0.004,0
		c2.848,0,5.164,2.317,5.164,5.166L76.651,39.321L76.651,39.321z"/>
</g>
</svg>
